…
-   Expected outcome: dplyr::bind\_rows to work with `Sparklyr` data reference.
-   Observed outcome: can't bind.

``` r
support <- copy_to(my_db,
                   data.frame(year=2005:2010),
                   'support')

# This form doesn't work.
dplyr::bind_rows(support, support)
 #  # A tibble: 24 × 4
 #                  con    src     x  vars
 #               <list> <list> <chr> <chr>
 #  1         <chr [1]> <NULL>  <NA>  <NA>
 #  2         <chr [1]> <NULL>  <NA>  <NA>
 #  3         <chr [1]> <NULL>  <NA>  <NA>
 #  4        <list [5]> <NULL>  <NA>  <NA>
 #  5         <chr [1]> <NULL>  <NA>  <NA>
 #  6    <S3: sockconn> <NULL>  <NA>  <NA>
 #  7    <S3: sockconn> <NULL>  <NA>  <NA>
 #  8         <chr [1]> <NULL>  <NA>  <NA>
 #  9  <S3: spark_jobj> <NULL>  <NA>  <NA>
 #  10 <S3: spark_jobj> <NULL>  <NA>  <NA>
 #  # ... with 14 more rows
…
