…
 #           <dbl>       <dbl>  <fctr> <dbl>
 #  1          5.8         4.0  setosa     0
 #  2          5.7         4.4  setosa     1
 #  [1] "coalesce example 1"
 #  # A tibble: 6 x 3
 #     year count  name
 #    <dbl> <dbl> <chr>
 #  1  2005     6     a
 #  2  2006     0      
 #  3  2007     1     b
 #  4  2008     0      
 #  5  2009     0      
 #  6  2010    NA     c
 #  [1] "coalesce example 2"
 #  # A tibble: 24 x 3
 #      year count  name
 #     <dbl> <dbl> <chr>
 #   1  2005     6     a
 #   2  2005     0     b
 #   3  2005     0     c
 #   4  2005     0     d
 #   5  2006     0     a
 #   6  2006     0     b
 #   7  2006     0     c
 #   8  2006     0     d
 #   9  2007     0     a
 #  10  2007     1     b
 #  # ... with 14 more rows
 #  [1] "split re-join"
 #  [1] "gapply"
 #  [1] "replyr_moveValuesToColumns"
 #  [1] "replyr_moveValuesToRows"
…
 #  # A tibble: 6 x 3
 #     year count  name
 #    <dbl> <dbl> <chr>
 #  1  2005     6     a
 #  2  2006     0      
 #  3  2007     1     b
 #  4  2008     0      
 #  5  2009     0      
 #  6  2010   NaN     c
 #  [1] "coalesce example 2"
 #  Source:     table<replyr_coalesce_GRveBjC7faGOF67lT5Jl_00014> [?? x 3]
 #  Database:   spark_connection
 #  Ordered by: year, name
 #  
 #  # A tibble: 24 x 3
 #      year count  name
 #     <dbl> <dbl> <chr>
 #   1  2005     6     a
 #   2  2005     0     b
 #   3  2005     0     c
 #   4  2005     0     d
 #   5  2006     0     a
 #   6  2006     0     b
 #   7  2006     0     c
 #   8  2006     0     d
 #   9  2007     0     a
 #  10  2007     1     b
 #  # ... with 14 more rows
 #  [1] "split re-join"
 #  [1] "gapply"
 #  [1] "replyr_moveValuesToColumns"
 #  [1] "replyr_moveValuesToRows"
…
